Compute Geodesic Distance and Distance-Weighted Measures Using Rcpp • distRcpp
…
Benchmark

Compare speed with base R function when measuring the distance between every United States population-weighted county centroid as measured in 2010 (N = 3,143 with complete measurements).

Load data

## libraries
libs <- c('dplyr','microbenchmark','geosphere','distRcpp')
lapply(libs, require, character.only = TRUE)

## read data
df <- get(data(county_centers))
df

## # A tibble: 3,147 × 9
##     fips    clon00   clat00    clon10   clat10   pclon00  pclat00   pclon10  pclat10
##    <chr>     <dbl>    <dbl>     <dbl>    <dbl>     <dbl>    <dbl>     <dbl>    <dbl>
## 1  01001 -86.57718 32.52328 -86.64449 32.53638 -86.50183 32.50032 -86.49416 32.50039
## 2  01003 -87.74826 30.59278 -87.74607 30.65922 -87.76054 30.56538 -87.76238 30.54892
## 3  01005 -85.33131 31.85652 -85.40546 31.87067 -85.30675 31.84787 -85.31004 31.84404
## 4  01007 -87.12324 33.04005 -87.12715 33.01589 -87.12702 33.02595 -87.12766 33.03092
## 5  01009 -86.55477 33.97846 -86.56725 33.97745 -86.58262 33.96260 -86.59149 33.95524
## 6  01011 -85.70491 32.09828 -85.71726 32.10176 -85.70278 32.11414 -85.70119 32.11633
## 7  01013 -86.66223 31.73588 -86.68197 31.75167 -86.65606 31.77192 -86.65355 31.77354
## 8  01015 -85.81754 33.74199 -85.82251 33.77171 -85.82205 33.72213 -85.81944 33.72546
## 9  01017 -85.28875 32.89123 -85.39181 32.91794 -85.26586 32.86135 -85.26647 32.86044
## 10 01019 -85.62193 34.18416 -85.65424 34.06952 -85.62710 34.17993 -85.62919 34.17933
## # ... with 3,137 more rows
…
